-------------------------------------------------------------------------------
Test set: com.sg.addressbook.dao.AddressBookDaoTest
-------------------------------------------------------------------------------
Tests run: 7, Failures: 0, Errors: 0, Skipped: 0, Time elapsed: 0.813 sec
